[{
    "profileStudent": "assets/images/Pee.jpg",
    "numberStudent": "001",
    "nameStudent": "chutchai",
    "surnameStudent": "Pengnak",
    "dateStudent": "1/1/1999",
    "emailStudent": "chutchai@cmu.ac.th",
    "passwordStudent": "1",
    "Image": "assets/images/Trekking.jpg",
    "activityId": "001",
    "actName": "Trekking",
    "location": "CAMT-Doisutep",
    "Date": "14/09/2019",
    "time": "4:00",
    "preriodOfRegis": "01/08/2019 - 30/08/2019",
    "host": "Professer Dto",
    "description": "Terkking try together"
},
{
    "profileStudent": "assets/images/Mek.jpg",
    "numberStudent": "002",
    "nameStudent": "Jiramet",
    "surnameStudent": "Withunsabphasiri",
    "dateStudent": "1/1/1999",
    "emailStudent": "Jiramet@cmu.ac.th",
    "passwordStudent": "2",
    "Image": "assets/images/Showpro.jpg",
    "activityId": "002",
    "actName": "SE show",
    "location": "CAMT",
    "Date": "30/01/2020",
    "time": "8:00",
    "preriodOfRegis": "06/11/2019 - 30/12/2019",
    "host": "Professer Yam",
    "description": "XXX fair to represent our xxx projects"
},
{
    "profileStudent": "assets/images/Plurm.jpg",
    "numberStudent": "003",
    "nameStudent": "Pongpanot",
    "surnameStudent": "tunkrongsin",
    "dateStudent": "1/1/1999",
    "emailStudent": " Pongpanot@cmu.ac.th",
    "passwordStudent": "3",
    "Image": "assets/images/Songkran.jpg",
    "StudentName": "Jane",
    "activityId": "003",
    "actName": "Songkran",
    "location": "CAMT-Walking street",
    "Date": "13/04/2020",
    "time": "7:30",
    "preriodOfRegis": "01/08/2019 - 30/08/2019",
    "host": "Professer Kong",
    "description": "You are already wet"
},
{
    "profileStudent": "assets/images/Pee2.jpg",
    "numberStudent": "004",
    "nameStudent": "Peepee",
    "surnameStudent": "Meaw",
    "dateStudent": "1/1/1999",
    "emailStudent": " PeePeedojin@cmu.ac.th",
    "passwordStudent": "4",
    "Image": "assets/images/Khantoke.jpg",
    "StudentName": "Marry",
    "activityId": "004",
    "actName": "Khantok CAMT",
    "location": "CAMT",
    "Date": "20/09/2019",
    "time": "17:00",
    "preriodOfRegis": "01/08/2019 - 30/08/2019",
    "host": "Professer Tdo",
    "description": "Free Lanna Dinner"
}
]